{
  "service_name": "TestService",
  "business_logic": {
    "entities": [
      {
        "name": "E1",
        "generates_exceptions": [
          "InvalidInit",
          "ValueOutOfBounds"
        ]
      },
      {
        "name": "E2",
        "generates_exceptions": []
      },
      {
        "name": "E3",
        "generates_exceptions": []
      },
      {
        "name": "E4",
        "generates_exceptions": []
      },
      {
        "name": "E5",
        "generates_exceptions": [
          "TimedOut"
        ]
      }],
    "utils": ["u1", "u2"]
  },
  "web": {
    "apps": [
      {
        "business_entity": "E1",
        "generate_model": true,
        "generate_view": true
      },
      {
        "business_entity": "E2",
        "generate_model": true,
        "generate_view": false
      },
      {
        "business_entity": "E3",
        "generate_model": false,
        "generate_view": true
      },
      {
        "business_entity": "E4",
        "generate_model": true,
        "generate_view": true
      }
    ]
  }
}